%YAML 1.1
%TAG !u! tag:unity3d.com,2011:
--- !u!114 &11400000
MonoBehaviour:
  m_ObjectHideFlags: 0
  m_PrefabParentObject: {fileID: 0}
  m_PrefabInternal: {fileID: 0}
  m_GameObject: {fileID: 0}
  m_Enabled: 1
  m_EditorHideFlags: 0
  m_Script: {fileID: 11500000, guid: 57643e150cb1ca64cb27ed58420f2ddf, type: 3}
  m_Name: Type2
  m_EditorClassIdentifier: 
  _type: 2
  _playerStates:
    Speed: 13
    Boost: 3
    StartHealth: 100
    MaxHealth: 250
    StartEnergy: 35
    MaxEnergy: 85
    RotationLerp: 6
    DamageCD: 2
    StartDamage: 30
    MaxDamage: 75
    Sprite: {fileID: 21300000, guid: 2e9032dd691d0824fb31e95eb0af721d, type: 3}
