%YAML 1.1
%TAG !u! tag:unity3d.com,2011:
--- !u!114 &11400000
MonoBehaviour:
  m_ObjectHideFlags: 0
  m_PrefabParentObject: {fileID: 0}
  m_PrefabInternal: {fileID: 0}
  m_GameObject: {fileID: 0}
  m_Enabled: 1
  m_EditorHideFlags: 0
  m_Script: {fileID: 11500000, guid: 08c982b398da13448919167b14268154, type: 3}
  m_Name: Score
  m_EditorClassIdentifier: 
  BonusType: 2
  Sprites:
  - {fileID: 21300000, guid: 9793d1c24bb17fc41ba8299538e6618b, type: 3}
  BonusStatses:
  - BonusRarity: 0
    AddHealth: {x: 0, y: 0.5}
    AddEnergy: {x: 0, y: 0.5}
    AddScore: {x: 1, y: 3}
    Color: {r: 1, g: 1, b: 1, a: 0}
  - BonusRarity: 35
    AddHealth: {x: 0.5, y: 1}
    AddEnergy: {x: 0.5, y: 1}
    AddScore: {x: 2, y: 5}
    Color: {r: 0.11372549, g: 0.96862745, b: 0, a: 1}
  - BonusRarity: 75
    AddHealth: {x: 2, y: 4}
    AddEnergy: {x: 2, y: 4}
    AddScore: {x: 5, y: 10}
    Color: {r: 0, g: 0.3254902, b: 0.96862745, a: 1}
  - BonusRarity: 100
    AddHealth: {x: 8, y: 25}
    AddEnergy: {x: 8, y: 25}
    AddScore: {x: 50, y: 100}
    Color: {r: 0.84313726, g: 0.07450981, b: 0.53333336, a: 1}
